ATTENTION: default value of option force_s3tc_enable overridden by environment.
[23646:23646:1111/204820.958334:ERROR:sync_control_vsync_provider.cc(62)] glXGetSyncValuesOML should not return TRUE with a media stream counter of 0.
[23590:23590:1111/212329.815355:ERROR:navigation_entry_screenshot_manager.cc(135)] Invalid entry with unique id: 1
[23590:23590:1111/212411.214400:ERROR:navigation_entry_screenshot_manager.cc(135)] Invalid entry with unique id: 29
[23590:23590:1111/214551.138932:ERROR:navigation_entry_screenshot_manager.cc(135)] Invalid entry with unique id: 30
[23590:23590:1111/214736.038672:ERROR:navigation_entry_screenshot_manager.cc(135)] Invalid entry with unique id: 43
[23590:23590:1111/214816.818499:ERROR:navigation_entry_screenshot_manager.cc(135)] Invalid entry with unique id: 46
[23590:23590:1111/214824.800673:ERROR:navigation_entry_screenshot_manager.cc(135)] Invalid entry with unique id: 47
[23590:23590:1111/214933.938089:ERROR:navigation_entry_screenshot_manager.cc(135)] Invalid entry with unique id: 48
[23590:23590:1111/215030.908820:ERROR:navigation_entry_screenshot_manager.cc(135)] Invalid entry with unique id: 49
[23590:23590:1111/215049.342657:ERROR:navigation_entry_screenshot_manager.cc(135)] Invalid entry with unique id: 50
[23590:23590:1111/221657.675716:ERROR:navigation_entry_screenshot_manager.cc(135)] Invalid entry with unique id: 51
[23646:23646:1112/084330.719778:ERROR:gles2_cmd_decoder.cc(17991)] [.DisplayCompositor-0x55c6e07e0dd0]GL ERROR :GL_INVALID_OPERATION : glCreateAndConsumeTextureCHROMIUM: invalid mailbox name
[23646:23646:1112/084330.719851:ERROR:gles2_cmd_decoder.cc(9890)] [.DisplayCompositor-0x55c6e07e0dd0]RENDER WARNING: texture bound to texture unit 0 is not renderable. It maybe non-power-of-2 and have incompatible texture filtering.
[23646:23646:1112/084330.719898:ERROR:gles2_cmd_decoder.cc(17991)] [.DisplayCompositor-0x55c6e07e0dd0]GL ERROR :GL_INVALID_OPERATION : glCreateAndConsumeTextureCHROMIUM: invalid mailbox name
[23646:23646:1112/084330.719923:ERROR:gles2_cmd_decoder.cc(9890)] [.DisplayCompositor-0x55c6e07e0dd0]RENDER WARNING: texture bound to texture unit 0 is not renderable. It maybe non-power-of-2 and have incompatible texture filtering.
[23646:23646:1112/084330.719983:ERROR:gles2_cmd_decoder.cc(17991)] [.DisplayCompositor-0x55c6e07e0dd0]GL ERROR :GL_INVALID_OPERATION : glCreateAndConsumeTextureCHROMIUM: invalid mailbox name
[23646:23646:1112/084330.720043:ERROR:gles2_cmd_decoder.cc(9890)] [.DisplayCompositor-0x55c6e07e0dd0]RENDER WARNING: texture bound to texture unit 0 is not renderable. It maybe non-power-of-2 and have incompatible texture filtering.
[23646:23646:1112/084330.720084:ERROR:gles2_cmd_decoder.cc(17991)] [.DisplayCompositor-0x55c6e07e0dd0]GL ERROR :GL_INVALID_OPERATION : glCreateAndConsumeTextureCHROMIUM: invalid mailbox name
[23646:23646:1112/084330.720112:ERROR:gles2_cmd_decoder.cc(9890)] [.DisplayCompositor-0x55c6e07e0dd0]RENDER WARNING: texture bound to texture unit 0 is not renderable. It maybe non-power-of-2 and have incompatible texture filtering.
[23646:23646:1112/084330.720148:ERROR:gles2_cmd_decoder.cc(17991)] [.DisplayCompositor-0x55c6e07e0dd0]GL ERROR :GL_INVALID_OPERATION : glCreateAndConsumeTextureCHROMIUM: invalid mailbox name
[23646:23646:1112/084330.720175:ERROR:gles2_cmd_decoder.cc(9890)] [.DisplayCompositor-0x55c6e07e0dd0]RENDER WARNING: texture bound to texture unit 0 is not renderable. It maybe non-power-of-2 and have incompatible texture filtering.
[23590:23590:1112/084923.868064:ERROR:navigation_entry_screenshot_manager.cc(135)] Invalid entry with unique id: 93
[23590:23590:1112/085128.258364:ERROR:navigation_entry_screenshot_manager.cc(135)] Invalid entry with unique id: 203
[23590:23590:1112/085153.817843:ERROR:navigation_entry_screenshot_manager.cc(135)] Invalid entry with unique id: 204
[23590:23590:1112/090153.052418:ERROR:navigation_entry_screenshot_manager.cc(135)] Invalid entry with unique id: 210
[23590:23590:1112/090208.158672:ERROR:navigation_entry_screenshot_manager.cc(135)] Invalid entry with unique id: 211
[23590:23590:1112/090211.739795:ERROR:navigation_entry_screenshot_manager.cc(135)] Invalid entry with unique id: 212
[23590:23590:1112/090356.100895:ERROR:navigation_entry_screenshot_manager.cc(135)] Invalid entry with unique id: 213
[23646:23646:1112/090405.277058:ERROR:gles2_cmd_decoder.cc(17991)] [.DisplayCompositor-0x55c6e07e0dd0]GL ERROR :GL_INVALID_OPERATION : glCreateAndConsumeTextureCHROMIUM: invalid mailbox name
[23646:23646:1112/090405.277232:ERROR:gles2_cmd_decoder.cc(9890)] [.DisplayCompositor-0x55c6e07e0dd0]RENDER WARNING: texture bound to texture unit 0 is not renderable. It maybe non-power-of-2 and have incompatible texture filtering.
[23590:23590:1112/144331.583573:ERROR:navigation_entry_screenshot_manager.cc(135)] Invalid entry with unique id: 217
[23590:23590:1112/155928.629542:ERROR:navigation_entry_screenshot_manager.cc(135)] Invalid entry with unique id: 250
[23590:23590:1112/160621.289547:ERROR:navigation_entry_screenshot_manager.cc(135)] Invalid entry with unique id: 263
[23590:23590:1112/160716.111971:ERROR:navigation_entry_screenshot_manager.cc(135)] Invalid entry with unique id: 272
[23590:23590:1112/160928.699316:ERROR:navigation_entry_screenshot_manager.cc(135)] Invalid entry with unique id: 273
[23590:23590:1112/161057.299091:ERROR:navigation_entry_screenshot_manager.cc(135)] Invalid entry with unique id: 274
[23590:23590:1112/161112.308684:ERROR:navigation_entry_screenshot_manager.cc(135)] Invalid entry with unique id: 277
[23590:23590:1112/161123.084007:ERROR:navigation_entry_screenshot_manager.cc(135)] Invalid entry with unique id: 278
[23590:23590:1112/161158.244248:ERROR:navigation_entry_screenshot_manager.cc(135)] Invalid entry with unique id: 279
[23590:23590:1112/161237.638285:ERROR:navigation_entry_screenshot_manager.cc(135)] Invalid entry with unique id: 282
[23590:23590:1112/161334.609245:ERROR:navigation_entry_screenshot_manager.cc(135)] Invalid entry with unique id: 283
[23590:23590:1112/161429.668096:ERROR:navigation_entry_screenshot_manager.cc(135)] Invalid entry with unique id: 284
[23590:23590:1112/161450.271975:ERROR:navigation_entry_screenshot_manager.cc(135)] Invalid entry with unique id: 285
[23590:23590:1112/200423.273279:ERROR:navigation_entry_screenshot_manager.cc(135)] Invalid entry with unique id: 368
