<?xml version="1.0" encoding="UTF-8" standalone="no"?>
<svg width="25px" height="25px" viewBox="0 0 25 25" version="1.1" xmlns="http://www.w3.org/2000/svg" xmlns:xlink="http://www.w3.org/1999/xlink">
    <!-- Generator: Sketch 48.2 (47327) - http://www.bohemiancoding.com/sketch -->
    <title>Etherium</title>
    <desc>Created with Sketch.</desc>
    <defs>
        <polygon id="path-1" points="0 0 24.03875 0 24.03875 24.0390625 0 24.0390625"></polygon>
    </defs>
    <g id="Desktop" stroke="none" stroke-width="1" fill="none" fill-rule="evenodd" transform="translate(-574.000000, -472.000000)">
        <g id="Etherium" transform="translate(574.000000, 472.000000)">
            <mask id="mask-2" fill="white">
                <use xlink:href="#path-1"></use>
            </mask>
            <g id="Clip-2"></g>
            <path d="M12.0278125,15.0021875 L7.235625,12.044375 L11.92625,4.3959375 L16.82,12.2490625 L12.0278125,15.0021875 Z M12.0278125,19.6584375 L7.235625,13.0303125 L12.0278125,15.919375 L16.82,13.0646875 L12.0278125,19.6584375 Z M12.02,-0.0009375 C5.3809375,-0.0009375 -0.0003125,5.381875 -0.0003125,12.019375 C-0.0003125,18.656875 5.3809375,24.0396875 12.02,24.0396875 C18.6575,24.0396875 24.03875,18.656875 24.03875,12.019375 C24.03875,5.381875 18.6575,-0.0009375 12.02,-0.0009375 Z" id="Fill-1" fill="#FFFFFF" mask="url(#mask-2)"></path>
        </g>
    </g>
</svg>