<?xml version="1.0" encoding="UTF-8" standalone="no"?>
<svg width="303px" height="245px" viewBox="0 0 303 245" version="1.1" xmlns="http://www.w3.org/2000/svg" xmlns:xlink="http://www.w3.org/1999/xlink">
    <!-- Generator: Sketch 48.2 (47327) - http://www.bohemiancoding.com/sketch -->
    <title>Shape</title>
    <desc>Created with Sketch.</desc>
    <defs></defs>
    <g id="Letter-Copy-3" stroke="none" stroke-width="1" fill="none" fill-rule="evenodd" transform="translate(-156.000000, -273.000000)">
        <g id="logo" transform="translate(156.000000, 273.000000)" fill="#FFFFFF" fill-rule="nonzero">
            <path d="M212.8,163.1 L122.4,163.6 L103.7,222.3 L74,222.3 L100.7,135 L212.7,135 C237.8,135 249.3,111.8 249.3,90.2 C249.3,61.2 233.3,53.6 208.3,53.6 L50.3,53.6 L43,77 L207.5,77 C221,77 224.3,83 224.3,93.7 C224.3,100 221,111 204.6,111 C182.6,111 83.9,110.7 83.9,110.7 L43.5,245 L121.5,245 L139.6,188 C139.6,188 195.4,187.1 210.1,187.1 C248.6,187.1 302.3,149.7 302.3,91.6 C302.3,28.6 259.7,1.6 219.5,1.6 C180.3,1.6 7.9,0.9 7.9,0.9 L0.1,26 C0.1,26 84.7,26 224,26 C253.3,26 277.5,49.3 277.5,91.2 C277.5,123.2 249.4,163.1 212.8,163.1 Z" id="Shape"></path>
        </g>
    </g>
</svg>